scripts/dump.vcd
$date
    Feb 13, 2024  18:23:54
$end
$version
    TOOL:	xmsim(64)	19.03-s008
$end
$timescale
    1 ns
$end

$scope module tb_top $end
$var reg       1 !    hclk $end
$var reg       1 "    pclock $end
$var reg       1 #    clk $end
$var reg       1 $    hresetn $end
$var reg       1 %    hready $end
$var reg       2 &    htrans [1:0] $end
$var reg       3 '    hburst [2:0] $end
$var reg       3 (    hsize [2:0] $end
$var reg       1 )    hwrite $end
$var reg      32 *    haddr [31:0] $end
$var reg      32 +    hwdata [31:0] $end
$var reg      32 ,    hrdata [31:0] $end
$var reg       2 -    hresp [1:0] $end

$scope module ahb_pif $end
$var wire      1 .    hclk  $end
$var reg       1 /    hsel $end
$var reg       1 0    hresetn $end
$var reg       1 1    hready $end
$var reg       2 2    htrans [1:0] $end
$var reg       3 3    hburst [2:0] $end
$var reg       3 4    hsize [2:0] $end
$var reg       1 5    hwrite $end
$var reg      32 6    haddr [31:0] $end
$var reg      32 7    hwdata [31:0] $end
$var reg      32 8    hrdata [31:0] $end
$var reg       2 9    hresp [1:0] $end

$scope clocking m_drv_cb $end
$var reg       2 :    htrans [1:0] $end
$var reg       3 ;    hburst [2:0] $end
$var reg       3 <    hsize [2:0] $end
$var reg       1 =    hwrite $end
$var reg      32 >    haddr [31:0] $end
$var reg      32 ?    hwdata [31:0] $end
$var reg       1 @    hready $end
$var reg       2 A    hresp [1:0] $end
$var reg      32 B    hrdata [31:0] $end
$upscope $end


$scope clocking m_mon_cb $end
$var reg       1 C    hresetn $end
$var reg       2 D    htrans [1:0] $end
$var reg       3 E    hburst [2:0] $end
$var reg       3 F    hsize [2:0] $end
$var reg       1 G    hwrite $end
$var reg      32 H    haddr [31:0] $end
$var reg      32 I    hwdata [31:0] $end
$var reg       1 J    hready $end
$var reg       2 K    hresp [1:0] $end
$var reg      32 L    hrdata [31:0] $end
$upscope $end


$scope clocking slv_drv_cb $end
$var reg       2 M    htrans [1:0] $end
$var reg       3 N    hburst [2:0] $end
$var reg       3 O    hsize [2:0] $end
$var reg       1 P    hwrite $end
$var reg      32 Q    haddr [31:0] $end
$var reg      32 R    hwdata [31:0] $end
$var reg       1 S    hready $end
$var reg       2 T    hresp [1:0] $end
$var reg      32 U    hrdata [31:0] $end
$upscope $end


$scope clocking slv_mon_cb $end
$var reg       2 V    htrans [1:0] $end
$var reg       3 W    hburst [2:0] $end
$var reg       3 X    hsize [2:0] $end
$var reg       1 Y    hwrite $end
$var reg      32 Z    haddr [31:0] $end
$var reg      32 [    hwdata [31:0] $end
$var reg       1 \    hready $end
$var reg       2 ]    hresp [1:0] $end
$var reg      32 ^    hrdata [31:0] $end
$upscope $end

$upscope $end


$scope module apb_pif $end
$var wire      1 _    pclock  $end
$var reg       1 `    presetn $end
$var reg      32 a    paddr [31:0] $end
$var reg      32 b    pwdata [31:0] $end
$var reg      32 c    prdata [31:0] $end
$var reg       1 d    pwrite $end
$var reg       1 e    pready $end
$var reg       1 f    psel $end
$var reg       1 g    penable $end
$var reg       1 h    pslverr $end
$var reg       1 i    has_checks $end
$var reg       1 j    has_coverage $end
$upscope $end


$scope module memif $end
$var wire      1 k    clk  $end
$var reg       1 l    rst_n $end
$var reg      32 m    addr [31:0] $end
$var reg      32 n    wr_data [31:0] $end
$var reg      32 o    rd_data [31:0] $end
$var reg       1 p    wr_en $end
$var reg       1 q    rd_en $end
$upscope $end


$scope module DUT $end
$var reg      32 r    start_addr [31:0] $end
$var reg      32 s    end_addr [31:0] $end
$var reg       2 t    ctrl_reg [1:0] $end
$var reg       1 u    config_st $end

$scope module SLV0 $end
$var reg      32 v    start_addr [31:0] $end
$var reg      32 w    end_addr [31:0] $end
$var reg       2 x    ctrl_reg [1:0] $end
$var wire      1 y    config_b  $end
$var reg       3 z    status [2:0] $end
$var wire      1 {    config_st  $end
$var reg       2 |    apb_st [1:0] $end
$upscope $end


$scope module slv1 $end
$var reg      32 }    haddr1 [31:0] $end
$var reg       3 ~    hsize1 [2:0] $end
$var reg       2 !!   htrans1 [1:0] $end
$var reg       1 "!   hwrite1 $end
$var reg       1 #!   rd_valid $end
$var reg      32 $!   hrdata [31:0] $end
$upscope $end

$upscope $end

$upscope $end

$enddefinitions $end
$dumpvars
1!
1"
1#
1$
x%
bx &
bx '
bx (
x)
bx *
bx +
bx ,
bx -
1.
x/
10
x1
bx 2
bx 3
bx 4
x5
bx 6
bx 7
bx 8
bx 9
bx :
bx ;
bx <
x=
bx >
bx ?
x@
bx A
bx B
xC
bx D
bx E
bx F
xG
bx H
bx I
xJ
bx K
bx L
bx M
bx N
bx O
xP
bx Q
bx R
xS
bx T
bx U
bx V
bx W
bx X
xY
bx Z
bx [
x\
bx ]
bx ^
1_
1`
bx a
bx b
b0 c
xd
1e
xf
xg
xh
xi
xj
1k
1l
bx m
bx n
bx o
0p
0q
bx r
bx s
bx t
xu
bx v
bx w
bx x
xy
bx z
z{
b0 |
bx }
bx ~
bx !!
x"!
x#!
bx $!
$end
#2
00
0`
0l
0$
b0 }
b0 ~
b0 !!
b0 9
b0 8
11
0"!
0#!
05
b0 2
0h
b0 z
0d
0f
0g
0i
0j
b0 -
b0 ,
1%
0)
b0 &
0y
0u
#5
0!
0"
0#
0k
0_
0.
#10
1!
1"
1#
1k
1_
1.
b0 V
0Y
1\
b0 ]
b0 ^
b0 M
0P
0C
b0 D
0G
1J
b0 K
b0 L
1@
b0 A
b0 B
#15
0!
0"
0#
0k
0_
0.
#20
1!
1"
1#
1k
1_
1.
#25
0!
0"
0#
0k
0_
0.
#30
1!
1"
1#
10
1`
1l
1$
1k
1_
1.
1i
1j
b0 a
1f
1d
b10000 b
#35
0!
0"
0#
0k
0_
0.
#40
1!
1"
1#
1k
1_
1.
1C
1g
b1 |
#45
0!
0"
0#
0k
0_
0.
#50
1!
1"
1#
1k
1_
1.
0g
0f
0d
b10000 v
b1 z
b0 |
b10000 r
1/
#55
0!
0"
0#
0k
0_
0.
#60
1!
1"
1#
1k
1_
1.
bx }
bx ~
b100 a
1f
1d
b111111111111111 b
#65
0!
0"
0#
0k
0_
0.
#70
1!
1"
1#
1k
1_
1.
1g
b1 |
#75
0!
0"
0#
0k
0_
0.
#80
1!
1"
1#
1k
1_
1.
0g
0f
0d
b111111111111111 w
b11 z
b0 |
b111111111111111 s
#85
0!
0"
0#
0k
0_
0.
#90
1!
1"
1#
1k
1_
1.
b1000 a
1f
1d
b1 b
#95
0!
0"
0#
0k
0_
0.
#100
1!
1"
1#
1k
1_
1.
1g
b1 |
#105
0!
0"
0#
0k
0_
0.
#110
1!
1"
1#
1k
1_
1.
0g
0f
0d
b1 x
b111 z
b0 |
1y
1u
b1 t
#115
0!
0"
0#
0k
0_
0.
#120
1!
1"
1#
1k
1_
1.
b1100 a
1f
1d
b11101101000110 b
#125
0!
0"
0#
0k
0_
0.
#130
1!
1"
1#
1k
1_
1.
1g
b1 |
#135
0!
0"
0#
0k
0_
0.
#140
1!
1"
1#
1k
1_
1.
0g
0f
0d
1h
b0 |
#145
0!
0"
0#
0k
0_
0.
#150
1!
1"
1#
1k
1_
1.
b1100 6
15
b10 2
b10 4
b11 3
b1100 *
1)
b10 &
b10 (
b11 '
#155
0!
0"
0#
0k
0_
0.
#160
1!
1"
1#
1k
1_
1.
b10 V
b11 W
b10 X
1Y
b1100 Z
b10 M
b11 N
b10 O
1P
b1100 Q
b10 D
b11 E
b10 F
1G
b1100 H
b10000 6
b11 2
b11111100110111110000001100000100 7
b10 !!
b1100 }
b10 ~
1"!
0/
b10000 *
b11 &
b11111100110111110000001100000100 +
#165
0!
0"
0#
0k
0_
0.
#170
1!
1"
1#
1k
1_
1.
b11 V
b10000 Z
b11111100110111110000001100000100 [
b11 M
b10000 Q
b11111100110111110000001100000100 R
b11 D
b10000 H
b11111100110111110000001100000100 I
b10100 6
b10010011000111101101011100100101 7
b10100 *
b10010011000111101101011100100101 +
#175
0!
0"
0#
0k
0_
0.
#180
1!
1"
1#
1k
1_
1.
b10100 Z
b10010011000111101101011100100101 [
b10100 Q
b10010011000111101101011100100101 R
b10100 H
b10010011000111101101011100100101 I
b11000 6
b100111011101010001000010001010 7
b11000 *
b100111011101010001000010001010 +
#185
0!
0"
0#
0k
0_
0.
#190
1!
1"
1#
1k
1_
1.
b11000 Z
b100111011101010001000010001010 [
b11000 Q
b100111011101010001000010001010 R
b11000 H
b100111011101010001000010001010 I
05
b0 2
b11101000011000000111101000100010 7
0)
b0 &
b11101000011000000111101000100010 +
#195
0!
0"
0#
0k
0_
0.
#200
1!
1"
1#
1k
1_
1.
b0 V
0Y
b11101000011000000111101000100010 [
b0 M
0P
b11101000011000000111101000100010 R
b0 D
0G
b11101000011000000111101000100010 I
b1001100100101000 6
15
b10 2
1/
b1001100100101000 *
1)
b10 &
#205
0!
0"
0#
0k
0_
0.
#210
1!
1"
1#
1k
1_
1.
b10 V
1Y
b1001100100101000 Z
b10 M
1P
b1001100100101000 Q
b10 D
1G
b1001100100101000 H
b1001100100101100 6
b11 2
b1001101101111111001110010101100 7
b1001100100101000 }
1p
b1100 m
b11101000011000000111101000100010 n
b1001100100101100 *
b11 &
b1001101101111111001110010101100 +
#215
0!
0"
0#
0k
0_
0.
#220
1!
1"
1#
1k
1_
1.
b11 V
b1001100100101100 Z
b1001101101111111001110010101100 [
b11 M
b1001100100101100 Q
b1001101101111111001110010101100 R
b11 D
b1001100100101100 H
b1001101101111111001110010101100 I
b1001100100110000 6
b1110110001010100111001100000101 7
b11 !!
b1001100100101100 }
b1001100100101000 m
b1001101101111111001110010101100 n
b1001100100110000 *
b1110110001010100111001100000101 +
#225
0!
0"
0#
0k
0_
0.
#230
1!
1"
1#
1k
1_
1.
b1001100100110000 Z
b1110110001010100111001100000101 [
b1001100100110000 Q
b1110110001010100111001100000101 R
b1001100100110000 H
b1110110001010100111001100000101 I
b1001100100110100 6
b10001010000101101011111100001000 7
b1001100100110000 }
b1001100100101100 m
b1110110001010100111001100000101 n
b1001100100110100 *
b10001010000101101011111100001000 +
#235
0!
0"
0#
0k
0_
0.
#240
1!
1"
1#
1k
1_
1.
b1001100100110100 Z
b10001010000101101011111100001000 [
b1001100100110100 Q
b10001010000101101011111100001000 R
b1001100100110100 H
b10001010000101101011111100001000 I
05
b0 2
b10000010010001001100111010001001 7
b1001100100110100 }
b1001100100110000 m
b10001010000101101011111100001000 n
0)
b0 &
b10000010010001001100111010001001 +
#245
0!
0"
0#
0k
0_
0.
#250
1!
1"
1#
1k
1_
1.
b0 V
0Y
b10000010010001001100111010001001 [
b0 M
0P
b10000010010001001100111010001001 R
b0 D
0G
b10000010010001001100111010001001 I
b100 6
15
b10 2
b0 !!
0"!
b1001100100110100 m
b10000010010001001100111010001001 n
b100 *
1)
b10 &
#255
0!
0"
0#
0k
0_
0.
#260
1!
1"
1#
1k
1_
1.
b10 V
1Y
b100 Z
b10 M
1P
b100 Q
b10 D
1G
b100 H
b1000 6
b11 2
b1011011011100000011111100011 7
b10 !!
b100 }
1"!
b1000 *
b11 &
b1011011011100000011111100011 +
#265
0!
0"
0#
0k
0_
0.
#270
1!
1"
1#
1k
1_
1.
b11 V
b1000 Z
b1011011011100000011111100011 [
b11 M
b1000 Q
b1011011011100000011111100011 R
b11 D
b1000 H
b1011011011100000011111100011 I
b1100 6
b11011101011100101100100110101011 7
b11 !!
b1000 }
b100 m
b1011011011100000011111100011 n
b1100 *
b11011101011100101100100110101011 +
#275
0!
0"
0#
0k
0_
0.
#280
1!
1"
1#
1k
1_
1.
b1100 Z
b11011101011100101100100110101011 [
b1100 Q
b11011101011100101100100110101011 R
b1100 H
b11011101011100101100100110101011 I
b10000 6
b11111000101100010110100010111011 7
b1100 }
b1000 m
b11011101011100101100100110101011 n
0/
b10000 *
b11111000101100010110100010111011 +
#285
0!
0"
0#
0k
0_
0.
#290
1!
1"
1#
1k
1_
1.
b10000 Z
b11111000101100010110100010111011 [
b10000 Q
b11111000101100010110100010111011 R
b10000 H
b11111000101100010110100010111011 I
05
b0 2
b11011100011010101011100011011 7
0p
0)
b0 &
b11011100011010101011100011011 +
#295
0!
0"
0#
0k
0_
0.
#300
1!
1"
1#
1k
1_
1.
b0 V
0Y
b11011100011010101011100011011 [
b0 M
0P
b11011100011010101011100011011 R
b0 D
0G
b11011100011010101011100011011 I
b100 6
15
b10 2
1/
b100 *
1)
b10 &
#305
0!
0"
0#
0k
0_
0.
#310
1!
1"
1#
1k
1_
1.
b10 V
1Y
b100 Z
b10 M
1P
b100 Q
b10 D
1G
b100 H
b1000 6
b11 2
b10101000110111111001111110000101 7
b10 !!
b100 }
1p
b1100 m
b11011100011010101011100011011 n
b1000 *
b11 &
b10101000110111111001111110000101 +
#315
0!
0"
0#
0k
0_
0.
#320
1!
1"
1#
1k
1_
1.
b11 V
b1000 Z
b10101000110111111001111110000101 [
b11 M
b1000 Q
b10101000110111111001111110000101 R
b11 D
b1000 H
b10101000110111111001111110000101 I
b1100 6
b100101010110000011011000111101 7
b11 !!
b1000 }
b100 m
b10101000110111111001111110000101 n
b1100 *
b100101010110000011011000111101 +
#325
0!
0"
0#
0k
0_
0.
#330
1!
1"
1#
1k
1_
1.
b1100 Z
b100101010110000011011000111101 [
b1100 Q
b100101010110000011011000111101 R
b1100 H
b100101010110000011011000111101 I
b10000 6
b10111001100101101101001000011 7
b1100 }
b1000 m
b100101010110000011011000111101 n
0/
b10000 *
b10111001100101101101001000011 +
#335
0!
0"
0#
0k
0_
0.
#340
1!
1"
1#
1k
1_
1.
b10000 Z
b10111001100101101101001000011 [
b10000 Q
b10111001100101101101001000011 R
b10000 H
b10111001100101101101001000011 I
05
b0 2
b1001111000111100000111110101111 7
0p
0)
b0 &
b1001111000111100000111110101111 +
#345
0!
0"
0#
0k
0_
0.
#350
1!
1"
1#
1k
1_
1.
b0 V
0Y
b1001111000111100000111110101111 [
b0 M
0P
b1001111000111100000111110101111 R
b0 D
0G
b1001111000111100000111110101111 I
b1101111101100 6
15
b10 2
b1101111101100 *
1)
b10 &
#355
0!
0"
0#
0k
0_
0.
#360
1!
1"
1#
1k
1_
1.
b10 V
1Y
b1101111101100 Z
b10 M
1P
b1101111101100 Q
b10 D
1G
b1101111101100 H
b1101111110000 6
b11 2
b10101111000111101001001000110101 7
b1101111110000 *
b11 &
b10101111000111101001001000110101 +
#365
0!
0"
0#
0k
0_
0.
#370
1!
1"
1#
1k
1_
1.
b11 V
b1101111110000 Z
b10101111000111101001001000110101 [
b11 M
b1101111110000 Q
b10101111000111101001001000110101 R
b11 D
b1101111110000 H
b10101111000111101001001000110101 I
b1101111110100 6
b10101000011001011100110000011 7
b1101111110100 *
b10101000011001011100110000011 +
#375
0!
0"
0#
0k
0_
0.
#380
1!
1"
1#
1k
1_
1.
b1101111110100 Z
b10101000011001011100110000011 [
b1101111110100 Q
b10101000011001011100110000011 R
b1101111110100 H
b10101000011001011100110000011 I
b1101111111000 6
b11010100110010010111110101100011 7
b1101111111000 *
b11010100110010010111110101100011 +
#385
0!
0"
0#
0k
0_
0.
#390
1!
1"
1#
1k
1_
1.
b1101111111000 Z
b11010100110010010111110101100011 [
b1101111111000 Q
b11010100110010010111110101100011 R
b1101111111000 H
b11010100110010010111110101100011 I
05
b0 2
b100101000000111011110001010111 7
0)
b0 &
b100101000000111011110001010111 +
#395
0!
0"
0#
0k
0_
0.
#400
1!
1"
1#
1k
1_
1.
b0 V
0Y
b100101000000111011110001010111 [
b0 M
0P
b100101000000111011110001010111 R
b0 D
0G
b100101000000111011110001010111 I
b1100 6
15
b10 2
1/
b1100 *
1)
b10 &
#405
0!
0"
0#
0k
0_
0.
#410
1!
1"
1#
1k
1_
1.
b10 V
1Y
b1100 Z
b10 M
1P
b1100 Q
b10 D
1G
b1100 H
b10000 6
b11 2
b1100011100000111111100111010110 7
b10 !!
1p
b1100 m
b100101000000111011110001010111 n
0/
b10000 *
b11 &
b1100011100000111111100111010110 +
#415
0!
0"
0#
0k
0_
0.
#420
1!
1"
1#
1k
1_
1.
b11 V
b10000 Z
b1100011100000111111100111010110 [
b11 M
b10000 Q
b1100011100000111111100111010110 R
b11 D
b10000 H
b1100011100000111111100111010110 I
b10100 6
b11000100001010110111111110110000 7
0p
b10100 *
b11000100001010110111111110110000 +
#425
0!
0"
0#
0k
0_
0.
#430
1!
1"
1#
1k
1_
1.
b10100 Z
b11000100001010110111111110110000 [
b10100 Q
b11000100001010110111111110110000 R
b10100 H
b11000100001010110111111110110000 I
b11000 6
b11001110010111010100111000111111 7
b11000 *
b11001110010111010100111000111111 +
#435
0!
0"
0#
0k
0_
0.
#440
1!
1"
1#
1k
1_
1.
b11000 Z
b11001110010111010100111000111111 [
b11000 Q
b11001110010111010100111000111111 R
b11000 H
b11001110010111010100111000111111 I
05
b0 2
b10111000110001100110100111111010 7
0)
b0 &
b10111000110001100110100111111010 +
#445
0!
0"
0#
0k
0_
0.
#450
1!
1"
1#
1k
1_
1.
b0 V
0Y
b10111000110001100110100111111010 [
b0 M
0P
b10111000110001100110100111111010 R
b0 D
0G
b10111000110001100110100111111010 I
b1001001111101100 6
15
b10 2
1/
b1001001111101100 *
1)
b10 &
#455
0!
0"
0#
0k
0_
0.
#460
1!
1"
1#
1k
1_
1.
b10 V
1Y
b1001001111101100 Z
b10 M
1P
b1001001111101100 Q
b10 D
1G
b1001001111101100 H
b1001001111110000 6
b11 2
b10000011111010101111000110000111 7
b1001001111101100 }
1p
b10111000110001100110100111111010 n
b1001001111110000 *
b11 &
b10000011111010101111000110000111 +
#465
0!
0"
0#
0k
0_
0.
#470
1!
1"
1#
1k
1_
1.
b11 V
b1001001111110000 Z
b10000011111010101111000110000111 [
b11 M
b1001001111110000 Q
b10000011111010101111000110000111 R
b11 D
b1001001111110000 H
b10000011111010101111000110000111 I
b1001001111110100 6
b10100111011110001011100001100010 7
b11 !!
b1001001111110000 }
b1001001111101100 m
b10000011111010101111000110000111 n
b1001001111110100 *
b10100111011110001011100001100010 +
#475
0!
0"
0#
0k
0_
0.
#480
1!
1"
1#
1k
1_
1.
b1001001111110100 Z
b10100111011110001011100001100010 [
b1001001111110100 Q
b10100111011110001011100001100010 R
b1001001111110100 H
b10100111011110001011100001100010 I
b1001001111111000 6
b11000001001001111101010101011010 7
b1001001111110100 }
b1001001111110000 m
b10100111011110001011100001100010 n
b1001001111111000 *
b11000001001001111101010101011010 +
#485
0!
0"
0#
0k
0_
0.
#490
1!
1"
1#
1k
1_
1.
b1001001111111000 Z
b11000001001001111101010101011010 [
b1001001111111000 Q
b11000001001001111101010101011010 R
b1001001111111000 H
b11000001001001111101010101011010 I
05
b0 2
b10011011000001100000100111101001 7
b1001001111111000 }
b1001001111110100 m
b11000001001001111101010101011010 n
0)
b0 &
b10011011000001100000100111101001 +
#495
0!
0"
0#
0k
0_
0.
#500
1!
1"
1#
1k
1_
1.
b0 V
0Y
b10011011000001100000100111101001 [
b0 M
0P
b10011011000001100000100111101001 R
b0 D
0G
b10011011000001100000100111101001 I
b1000001000101000 6
15
b10 2
b0 !!
0"!
b1001001111111000 m
b10011011000001100000100111101001 n
b1000001000101000 *
1)
b10 &
#505
0!
0"
0#
0k
0_
0.
#510
1!
1"
1#
1k
1_
1.
b10 V
1Y
b1000001000101000 Z
b10 M
1P
b1000001000101000 Q
b10 D
1G
b1000001000101000 H
b1000001000101100 6
b11 2
b11100111100010100100010000000100 7
b10 !!
b1000001000101000 }
1"!
b1000001000101100 *
b11 &
b11100111100010100100010000000100 +
#515
0!
0"
0#
0k
0_
0.
#520
1!
1"
1#
1k
1_
1.
b11 V
b1000001000101100 Z
b11100111100010100100010000000100 [
b11 M
b1000001000101100 Q
b11100111100010100100010000000100 R
b11 D
b1000001000101100 H
b11100111100010100100010000000100 I
b1000001000110000 6
b1000011101000011010000111110 7
b11 !!
b1000001000101100 }
b1000001000101000 m
b11100111100010100100010000000100 n
b1000001000110000 *
b1000011101000011010000111110 +
#525
0!
0"
0#
0k
0_
0.
#530
1!
1"
1#
1k
1_
1.
b1000001000110000 Z
b1000011101000011010000111110 [
b1000001000110000 Q
b1000011101000011010000111110 R
b1000001000110000 H
b1000011101000011010000111110 I
b1000001000110100 6
b1110100100100100100001001011101 7
b1000001000110000 }
b1000001000101100 m
b1000011101000011010000111110 n
b1000001000110100 *
b1110100100100100100001001011101 +
#535
0!
0"
0#
0k
0_
0.
#540
1!
1"
1#
1k
1_
1.
b1000001000110100 Z
b1110100100100100100001001011101 [
b1000001000110100 Q
b1110100100100100100001001011101 R
b1000001000110100 H
b1110100100100100100001001011101 I
05
b0 2
b1101001001010101111101001000000 7
b1000001000110100 }
b1000001000110000 m
b1110100100100100100001001011101 n
0)
b0 &
b1101001001010101111101001000000 +
#545
0!
0"
0#
0k
0_
0.
#550
1!
1"
1#
1k
1_
1.
b0 V
0Y
b1101001001010101111101001000000 [
b0 M
0P
b1101001001010101111101001000000 R
b0 D
0G
b1101001001010101111101001000000 I
b111101100001000 6
15
b10 2
b0 !!
0"!
b1000001000110100 m
b1101001001010101111101001000000 n
0/
b111101100001000 *
1)
b10 &
#555
0!
0"
0#
0k
0_
0.
#560
1!
1"
1#
1k
1_
1.
b10 V
1Y
b111101100001000 Z
b10 M
1P
b111101100001000 Q
b10 D
1G
b111101100001000 H
b111101100001100 6
b11 2
b1101000100101100111101110000100 7
0p
b111101100001100 *
b11 &
b1101000100101100111101110000100 +
#565
0!
0"
0#
0k
0_
0.
#570
1!
1"
1#
1k
1_
1.
b11 V
b111101100001100 Z
b1101000100101100111101110000100 [
b11 M
b111101100001100 Q
b1101000100101100111101110000100 R
b11 D
b111101100001100 H
b1101000100101100111101110000100 I
b111101100010000 6
b1101001001011000111100111110100 7
b111101100010000 *
b1101001001011000111100111110100 +
#575
0!
0"
0#
0k
0_
0.
#580
1!
1"
1#
1k
1_
1.
b111101100010000 Z
b1101001001011000111100111110100 [
b111101100010000 Q
b1101001001011000111100111110100 R
b111101100010000 H
b1101001001011000111100111110100 I
b111101100010100 6
b10001100010010100011001101100000 7
b111101100010100 *
b10001100010010100011001101100000 +
#585
0!
0"
0#
0k
0_
0.
#590
1!
1"
1#
1k
1_
1.
b111101100010100 Z
b10001100010010100011001101100000 [
b111101100010100 Q
b10001100010010100011001101100000 R
b111101100010100 H
b10001100010010100011001101100000 I
05
b0 2
b11001110110011101111001010101000 7
0)
b0 &
b11001110110011101111001010101000 +
#595
0!
0"
0#
0k
0_
0.
#600
1!
1"
1#
1k
1_
1.
b0 V
0Y
b11001110110011101111001010101000 [
b0 M
0P
b11001110110011101111001010101000 R
b0 D
0G
b11001110110011101111001010101000 I
